…
TWDB provides water level measurements from a statewide network of well
level recorders. To download the information, all that is needed is the
state well number. This information can be accessed with the
`download_well_meta()` function. This will provide a `sf` dataframe:

``` r
df <- download_well_meta()

df
#> Simple feature collection with 302 features and 6 fields
#> Geometry type: POINT
#> Dimension:     XY
#> Bounding box:  xmin: -106.6058 ymin: 26.04472 xmax: -94.07056 ymax: 36.24333
#> Geodetic CRS:  WGS 84
#> # A tibble: 302 x 7
#>    aquifer  aquifer_type county   entity                     status  well_number
#>    <chr>    <chr>        <chr>    <chr>                      <chr>   <chr>      
#>  1 Ogallala Unconfined   Dallam   Texas Water Development B~ Active  0260303    
#>  2 Ogallala Unconfined   Hansford Texas Water Development B~ Active  0354301    
#>  3 Ogallala Unconfined   Roberts  Panhandle GCD              Active  0503709    
#>  4 Ogallala Unconfined   Roberts  Texas Water Development B~ Active  0509553    
#>  5 Ogallala Unconfined   Roberts  Panhandle GCD              Active  0510953    
#>  6 Ogallala Unconfined   Roberts  Texas Water Development B~ Active  0517203    
#>  7 Ogallala Unconfined   Gray     Panhandle GCD              Active  0526501    
#>  8 Ogallala Unconfined   Wheeler  Panhandle GCD              Active  0529505    
#>  9 Ogallala Unconfined   Wheeler  Texas Water Development B~ Inacti~ 0529711    
#> 10 Other    Unconfined   Wheeler  Panhandle GCD              Active  0539904    
#> # ... with 292 more rows, and 1 more variable: geometry <POINT [°]>
```
…
<img src="man/figures/README-example9-1.png" width="100%" />

## Download Coastal Water Quality Data

A list of sites is available with the `download_coastal_sites()`
function:

``` r
df <- download_coastal_sites(all_stations = TRUE)
df
#> # A tibble: 137 x 14
#>       id station_code name    description   stationstatus$id $name $description 
#>    <int> <chr>        <chr>   <chr>                    <int> <chr> <chr>        
#>  1   208 6980         <a hre~ "East Bay @ ~                1 live  Station is r~
#>  2   202 6984         <a hre~ "West Bay @ ~                1 live  Station is r~
#>  3   205 6985         <a hre~ "West Bay @ ~                1 live  Station is r~
#>  4   206 6990         <a hre~ "West Bay @ ~                1 live  Station is r~
#>  5   204 6996         <a hre~ "Mad Island ~                1 live  Station is r~
#>  6    65 ARA          Mid Ar~ "Aransas Bay~                3 reti~ Station is r~
#>  7   258 ARA_1        ARA_1   "Port Aransa~                4 temp~ Station was ~
#>  8   259 ARA_2        ARA_2   "Lydia Ann C~                4 temp~ Station was ~
#>  9   260 ARA_3        ARA_3   "Corpus Chri~                4 temp~ Station was ~
#> 10   261 ARA_4        ARA_4   "GIWW nr Cov~                4 temp~ Station was ~
#> # ... with 127 more rows, and 9 more variables: agency <df[,3]>,
#> #   coordinates <list>, estuary <chr>, bay <chr>, status_id <int>,
#> #   the_geom <df[,2]>, basin <chr>, max_date <chr>, min_date <chr>
```
…
``` r
df <- download_coastal_site_data(station = "SAB2",
                                 parameter = "seawater_salinity",
                                 start_date = "2010-01-01",
                                 end_date = "2018-01-01",
                                 bin = "hour")
df %>%
  mutate(datetime_utc = as.POSIXct(datetime_utc))
#> # A tibble: 60,447 x 2
#>    value datetime_utc       
#>    <dbl> <dttm>             
#>  1 8.85  2010-01-01 00:00:00
#>  2 7.21  2010-01-01 00:00:00
#>  3 6.31  2010-01-01 00:00:00
#>  4 4.81  2010-01-01 00:00:00
#>  5 3.53  2010-01-01 00:00:00
#>  6 2.38  2010-01-01 00:00:00
#>  7 1.85  2010-01-01 00:00:00
#>  8 1.04  2010-01-01 00:00:00
#>  9 0.96  2010-01-01 00:00:00
#> 10 0.879 2010-01-01 00:00:00
#> # ... with 60,437 more rows
```
